^C:\USERS\FORD_\DOCUMENTS\MAGSHIMIM\ADVANCED_PROGRAMMING\FINALPROJECT\TRIVIA\SERVER\X64\DEBUG\DATABASE.OBJ|C:\USERS\FORD_\DOCUMENTS\MAGSHIMIM\ADVANCED_PROGRAMMING\FINALPROJECT\TRIVIA\SERVER\X64\DEBUG\GAME.OBJ|C:\USERS\FORD_\DOCUMENTS\MAGSHIMIM\ADVANCED_PROGRAMMING\FINALPROJECT\TRIVIA\SERVER\X64\DEBUG\HELPER.OBJ|C:\USERS\FORD_\DOCUMENTS\MAGSHIMIM\ADVANCED_PROGRAMMING\FINALPROJECT\TRIVIA\SERVER\X64\DEBUG\MAIN.OBJ|C:\USERS\FORD_\DOCUMENTS\MAGSHIMIM\ADVANCED_PROGRAMMING\FINALPROJECT\TRIVIA\SERVER\X64\DEBUG\RECIEVEDMESSAGE.OBJ|C:\USERS\FORD_\DOCUMENTS\MAGSHIMIM\ADVANCED_PROGRAMMING\FINALPROJECT\TRIVIA\SERVER\X64\DEBUG\ROOM.OBJ|C:\USERS\FORD_\DOCUMENTS\MAGSHIMIM\ADVANCED_PROGRAMMING\FINALPROJECT\TRIVIA\SERVER\X64\DEBUG\TRIVIASERVER.OBJ|C:\USERS\FORD_\DOCUMENTS\MAGSHIMIM\ADVANCED_PROGRAMMING\FINALPROJECT\TRIVIA\SERVER\X64\DEBUG\USER.OBJ|C:\USERS\FORD_\DOCUMENTS\MAGSHIMIM\ADVANCED_PROGRAMMING\FINALPROJECT\TRIVIA\SERVER\X64\DEBUG\VALIDATOR.OBJ|C:\USERS\FORD_\DOCUMENTS\MAGSHIMIM\ADVANCED_PROGRAMMING\FINALPROJECT\TRIVIA\SERVER\X64\DEBUG\WSAINITIALIZER.OBJ
/OUT:"C:\USERS\FORD_\DOCUMENTS\MAGSHIMIM\ADVANCED_PROGRAMMING\FINALPROJECT\TRIVIA\X64\DEBUG\SERVER.EXE" /INCREMENTAL /NOLOGO KERNEL32.LIB USER32.LIB GDI32.LIB WINSPOOL.LIB COMDLG32.LIB ADVAPI32.LIB SHELL32.LIB OLE32.LIB OLEAUT32.LIB UUID.LIB ODBC32.LIB ODBCCP32.LIB /MANIFEST /MANIFESTUAC:"level='asInvoker' uiAccess='false'" /manifest:embed /DEBUG:FASTLINK /PDB:"C:\USERS\FORD_\DOCUMENTS\MAGSHIMIM\ADVANCED_PROGRAMMING\FINALPROJECT\TRIVIA\X64\DEBUG\SERVER.PDB" /SUBSYSTEM:CONSOLE /TLBID:1 /DYNAMICBASE /NXCOMPAT /IMPLIB:"C:\USERS\FORD_\DOCUMENTS\MAGSHIMIM\ADVANCED_PROGRAMMING\FINALPROJECT\TRIVIA\X64\DEBUG\SERVER.LIB" /MACHINE:X64 X64\DEBUG\DATABASE.OBJX64\DEBUG\GAME.OBJX64\DEBUG\HELPER.OBJX64\DEBUG\MAIN.OBJX64\DEBUG\RECIEVEDMESSAGE.OBJX64\DEBUG\ROOM.OBJX64\DEBUG\TRIVIASERVER.OBJX64\DEBUG\USER.OBJX64\DEBUG\VALIDATOR.OBJX64\DEBUG\WSAINITIALIZER.OBJ
^C:\USERS\FORD_\DOCUMENTS\MAGSHIMIM\ADVANCED_PROGRAMMING\FINALPROJECT\TRIVIA\SERVER\X64\DEBUG\DATABASE.OBJ|C:\USERS\FORD_\DOCUMENTS\MAGSHIMIM\ADVANCED_PROGRAMMING\FINALPROJECT\TRIVIA\SERVER\X64\DEBUG\GAME.OBJ|C:\USERS\FORD_\DOCUMENTS\MAGSHIMIM\ADVANCED_PROGRAMMING\FINALPROJECT\TRIVIA\SERVER\X64\DEBUG\HELPER.OBJ|C:\USERS\FORD_\DOCUMENTS\MAGSHIMIM\ADVANCED_PROGRAMMING\FINALPROJECT\TRIVIA\SERVER\X64\DEBUG\MAIN.OBJ|C:\USERS\FORD_\DOCUMENTS\MAGSHIMIM\ADVANCED_PROGRAMMING\FINALPROJECT\TRIVIA\SERVER\X64\DEBUG\QUESTION.OBJ|C:\USERS\FORD_\DOCUMENTS\MAGSHIMIM\ADVANCED_PROGRAMMING\FINALPROJECT\TRIVIA\SERVER\X64\DEBUG\RECIEVEDMESSAGE.OBJ|C:\USERS\FORD_\DOCUMENTS\MAGSHIMIM\ADVANCED_PROGRAMMING\FINALPROJECT\TRIVIA\SERVER\X64\DEBUG\ROOM.OBJ|C:\USERS\FORD_\DOCUMENTS\MAGSHIMIM\ADVANCED_PROGRAMMING\FINALPROJECT\TRIVIA\SERVER\X64\DEBUG\TRIVIASERVER.OBJ|C:\USERS\FORD_\DOCUMENTS\MAGSHIMIM\ADVANCED_PROGRAMMING\FINALPROJECT\TRIVIA\SERVER\X64\DEBUG\USER.OBJ|C:\USERS\FORD_\DOCUMENTS\MAGSHIMIM\ADVANCED_PROGRAMMING\FINALPROJECT\TRIVIA\SERVER\X64\DEBUG\VALIDATOR.OBJ|C:\USERS\FORD_\DOCUMENTS\MAGSHIMIM\ADVANCED_PROGRAMMING\FINALPROJECT\TRIVIA\SERVER\X64\DEBUG\WSAINITIALIZER.OBJ
/OUT:"C:\USERS\FORD_\DOCUMENTS\MAGSHIMIM\ADVANCED_PROGRAMMING\FINALPROJECT\TRIVIA\X64\DEBUG\SERVER.EXE" /INCREMENTAL /NOLOGO WS2_32.LIB KERNEL32.LIB USER32.LIB GDI32.LIB WINSPOOL.LIB COMDLG32.LIB ADVAPI32.LIB SHELL32.LIB OLE32.LIB OLEAUT32.LIB UUID.LIB ODBC32.LIB ODBCCP32.LIB /MANIFEST /MANIFESTUAC:"level='asInvoker' uiAccess='false'" /manifest:embed /DEBUG:FASTLINK /PDB:"C:\USERS\FORD_\DOCUMENTS\MAGSHIMIM\ADVANCED_PROGRAMMING\FINALPROJECT\TRIVIA\X64\DEBUG\SERVER.PDB" /SUBSYSTEM:CONSOLE /TLBID:1 /DYNAMICBASE /NXCOMPAT /IMPLIB:"C:\USERS\FORD_\DOCUMENTS\MAGSHIMIM\ADVANCED_PROGRAMMING\FINALPROJECT\TRIVIA\X64\DEBUG\SERVER.LIB" /MACHINE:X64 X64\DEBUG\DATABASE.OBJX64\DEBUG\GAME.OBJX64\DEBUG\HELPER.OBJX64\DEBUG\MAIN.OBJX64\DEBUG\QUESTION.OBJX64\DEBUG\RECIEVEDMESSAGE.OBJX64\DEBUG\ROOM.OBJX64\DEBUG\TRIVIASERVER.OBJX64\DEBUG\USER.OBJX64\DEBUG\VALIDATOR.OBJX64\DEBUG\WSAINITIALIZER.OBJ
^C:\USERS\MAGSHIMIM\DOCUMENTS\MAGSHIMIM\YEAR2\FINAL\TRIVIA\SERVER\X64\DEBUG\DATABASE.OBJ|C:\USERS\MAGSHIMIM\DOCUMENTS\MAGSHIMIM\YEAR2\FINAL\TRIVIA\SERVER\X64\DEBUG\GAME.OBJ|C:\USERS\MAGSHIMIM\DOCUMENTS\MAGSHIMIM\YEAR2\FINAL\TRIVIA\SERVER\X64\DEBUG\HELPER.OBJ|C:\USERS\MAGSHIMIM\DOCUMENTS\MAGSHIMIM\YEAR2\FINAL\TRIVIA\SERVER\X64\DEBUG\MAIN.OBJ|C:\USERS\MAGSHIMIM\DOCUMENTS\MAGSHIMIM\YEAR2\FINAL\TRIVIA\SERVER\X64\DEBUG\QUESTION.OBJ|C:\USERS\MAGSHIMIM\DOCUMENTS\MAGSHIMIM\YEAR2\FINAL\TRIVIA\SERVER\X64\DEBUG\RECIEVEDMESSAGE.OBJ|C:\USERS\MAGSHIMIM\DOCUMENTS\MAGSHIMIM\YEAR2\FINAL\TRIVIA\SERVER\X64\DEBUG\ROOM.OBJ|C:\USERS\MAGSHIMIM\DOCUMENTS\MAGSHIMIM\YEAR2\FINAL\TRIVIA\SERVER\X64\DEBUG\SQLITE3.OBJ|C:\USERS\MAGSHIMIM\DOCUMENTS\MAGSHIMIM\YEAR2\FINAL\TRIVIA\SERVER\X64\DEBUG\TRIVIASERVER.OBJ|C:\USERS\MAGSHIMIM\DOCUMENTS\MAGSHIMIM\YEAR2\FINAL\TRIVIA\SERVER\X64\DEBUG\USER.OBJ|C:\USERS\MAGSHIMIM\DOCUMENTS\MAGSHIMIM\YEAR2\FINAL\TRIVIA\SERVER\X64\DEBUG\VALIDATOR.OBJ|C:\USERS\MAGSHIMIM\DOCUMENTS\MAGSHIMIM\YEAR2\FINAL\TRIVIA\SERVER\X64\DEBUG\WSAINITIALIZER.OBJ
/OUT:"C:\USERS\MAGSHIMIM\DOCUMENTS\MAGSHIMIM\YEAR2\FINAL\TRIVIA\X64\DEBUG\SERVER.EXE" /INCREMENTAL /NOLOGO WS2_32.LIB KERNEL32.LIB USER32.LIB GDI32.LIB WINSPOOL.LIB COMDLG32.LIB ADVAPI32.LIB SHELL32.LIB OLE32.LIB OLEAUT32.LIB UUID.LIB ODBC32.LIB ODBCCP32.LIB /MANIFEST /MANIFESTUAC:"level='asInvoker' uiAccess='false'" /manifest:embed /DEBUG:FASTLINK /PDB:"C:\USERS\MAGSHIMIM\DOCUMENTS\MAGSHIMIM\YEAR2\FINAL\TRIVIA\X64\DEBUG\SERVER.PDB" /SUBSYSTEM:CONSOLE /TLBID:1 /DYNAMICBASE /NXCOMPAT /IMPLIB:"C:\USERS\MAGSHIMIM\DOCUMENTS\MAGSHIMIM\YEAR2\FINAL\TRIVIA\X64\DEBUG\SERVER.LIB" /MACHINE:X64 X64\DEBUG\DATABASE.OBJX64\DEBUG\GAME.OBJX64\DEBUG\HELPER.OBJX64\DEBUG\MAIN.OBJX64\DEBUG\QUESTION.OBJX64\DEBUG\RECIEVEDMESSAGE.OBJX64\DEBUG\ROOM.OBJX64\DEBUG\SQLITE3.OBJX64\DEBUG\TRIVIASERVER.OBJX64\DEBUG\USER.OBJX64\DEBUG\VALIDATOR.OBJX64\DEBUG\WSAINITIALIZER.OBJ
